ESCALATOR;2;
OTHER;4;
PATH;5;
SHOP;6;
STAND;7;
ELEVATOR;8;
STAIRS_CONNECTOR;9;
STAIRS;10;
RAMP;11;
AXS;12;
KIOSK;13;
CDM;14;
TRAIN_STATION;16;
SUPERMARKET;18;
ATM;20;
INFO;21;
HANDICAPPED_TOILET;22;
HANDICAPPED_ELEVATOR;23;
MANAGEMENT;24;
TOILET;25;
CLOAKROOM;26;
PHONE;27;
ENTRANCE;28;
MOTHER_AND_CHILD_ROOM;29;
FIRST_AID;30;
PARKING;31;
INTERNET;32;
TRAVELATOR;33;
BUS_STOP;34;
TAXI;35;
DROP_OFF;36;
TOILET_FOR_KIDS;37;
BIKE_STAND;38;
CHILL_ROOM;39;
MEETING_POINT;40;
CINEMA;41;
CURRENCY_EXCHANGE;42;
LIBRARY_ENTRANCE;43;
PARKING_B_ELEVATOR;44;
PARKING_C_ENTRANCE;45;
PARKING_A_TRAVELATOR;46;
PARKING_B_ESCALATOR;47;
PARKING_C_ESCALATOR;48;
KIDS_AREA;49;
CAROUSEL;50;
PIANO;51;
INTERACTIVE_TABLE;52;
INTERACTIVE_FLOOR;53;
SUMMER_STAGE;54;
PARKING_XXL;55;
PARKING_XXS;56;
PARKING_FAMILY;57;
PARKING_HANDICAPPED;58;
FEED_AREA;59;
PLAYGROUND;60;
